[gd_scene load_steps=2 format=3 uid="uid://c7fyvd8kw1o6"]

[ext_resource type="Script" path="res://autoload/NetworkEvents.gd" id="1_05vn2"]

[node name="NetworkEvents" type="Node"]
script = ExtResource("1_05vn2")
