[gd_scene load_steps=4 format=3 uid="uid://20pfqm2qoug3"]

[ext_resource type="Texture2D" uid="uid://xdacqvp5uwtt" path="res://addons/kenney_particle_pack/circle_05.png" id="1_vfho5"]

[sub_resource type="StyleBoxFlat" id="StyleBoxFlat_cet1f"]
bg_color = Color(0.862745, 0, 0.298039, 1)

[sub_resource type="StyleBoxFlat" id="StyleBoxFlat_asxv0"]
bg_color = Color(0, 0.921569, 0, 1)

[node name="HUD" type="CanvasLayer"]

[node name="HUD" type="Control" parent="."]
visible = false
layout_mode = 3
anchors_preset = 15
anchor_right = 1.0
anchor_bottom = 1.0
grow_horizontal = 2
grow_vertical = 2
mouse_filter = 2

[node name="TextureRect" type="TextureRect" parent="HUD"]
layout_mode = 1
anchors_preset = 15
anchor_right = 1.0
anchor_bottom = 1.0
grow_horizontal = 2
grow_vertical = 2
scale = Vector2(0.03, 0.03)
pivot_offset = Vector2(576, 324)
texture = ExtResource("1_vfho5")
stretch_mode = 5

[node name="HealthBar" type="ProgressBar" parent="HUD"]
layout_mode = 1
anchors_preset = 15
anchor_right = 1.0
anchor_bottom = 1.0
offset_left = 394.0
offset_top = 49.0
offset_right = -394.0
offset_bottom = -553.0
grow_horizontal = 2
grow_vertical = 2
theme_override_styles/background = SubResource("StyleBoxFlat_cet1f")
theme_override_styles/fill = SubResource("StyleBoxFlat_asxv0")
max_value = 3.0
value = 3.0
show_percentage = false
